[{
		"categoryId": 4,
		"categoryTitle": "Watch next movies",
		"categoryItemList": [{
				"fileUrl": "https://androidappsforyoutube.s3.ap-south-1.amazonaws.com/primevideo/patallok.mp4",
				"id": 2,
				"imageUrl": "https://images-eu.ssl-images-amazon.com/images/S/pv-target-images/6f22535cb1f0480cd1fdbc1b836d5909884a9422932f3ee03a160e506acd0c12._UR1920,1080_RI_SX356_FMwebp_.jpg",
				"movieName": "Sakuntala Devi"
			},
			{
				"fileUrl": "https://androidappsforyoutube.s3.ap-south-1.amazonaws.com/primevideo/patallok.mp4",
				"id": 2,
				"imageUrl": "https://images-eu.ssl-images-amazon.com/images/S/pv-target-images/e41166a5e9cec788790a4b3506dd8a8b4d76fd299ba8699161e1a8a53869bf59._UR1920,1080_RI_SX356_FMwebp_.jpg",
				"movieName": "Fantasy Island"
			},
			{
				"fileUrl": "https://androidappsforyoutube.s3.ap-south-1.amazonaws.com/primevideo/patallok.mp4",
				"id": 2,
				"imageUrl": "https://images-eu.ssl-images-amazon.com/images/S/pv-target-images/064a728e9ae7dc2409d27497e328f5646fe4ae9d64fed57ed3bd222bf3ad0b4e._UR1920,1080_RI_SX356_FMwebp_.jpg",
				"movieName": "The Wailing"
			}
		]
	},
	{
		"categoryId": 4,
		"categoryTitle": "Amazon Original series",
		"categoryItemList": [{
			"fileUrl": "https://androidappsforyoutube.s3.ap-south-1.amazonaws.com/primevideo/patallok.mp4",
			"id": 2,
			"imageUrl": "https://images-eu.ssl-images-amazon.com/images/S/pv-target-images/44c2131db76aefb7210447a3f86ce3fc38f5670346a2219d3caf2cc0d7f4f27b._UR1920,1080_RI_SX356_FMwebp_.jpg",
			"movieName": "Photograph"
		}]
	},
	{
		"categoryId": 4,
		"categoryTitle": "Hollywood movies",
		"categoryItemList": [{
			"fileUrl": "https://androidappsforyoutube.s3.ap-south-1.amazonaws.com/primevideo/patallok.mp4",
			"id": 2,
			"imageUrl": "https://images-eu.ssl-images-amazon.com/images/S/pv-target-images/8a3f6b60455328e8246228c18311c3bfe06efbaac7a6e2f4809e4cabe0a79850._UR1920,1080_RI_SX356_FMwebp_.jpg",
			"movieName": "No Vacancy"
		}]
	}
]